[
{
    "model": "contenttypes.contenttype",
    "pk": 1,
    "fields": {
        "app_label": "admin",
        "model": "logentry"
    }
},
{
    "model": "contenttypes.contenttype",
    "pk": 2,
    "fields": {
        "app_label": "auth",
        "model": "permission"
    }
},
{
    "model": "contenttypes.contenttype",
    "pk": 3,
    "fields": {
        "app_label": "auth",
        "model": "group"
    }
},
{
    "model": "contenttypes.contenttype",
    "pk": 4,
    "fields": {
        "app_label": "auth",
        "model": "user"
    }
},
{
    "model": "contenttypes.contenttype",
    "pk": 5,
    "fields": {
        "app_label": "contenttypes",
        "model": "contenttype"
    }
},
{
    "model": "contenttypes.contenttype",
    "pk": 6,
    "fields": {
        "app_label": "sessions",
        "model": "session"
    }
},
{
    "model": "contenttypes.contenttype",
    "pk": 7,
    "fields": {
        "app_label": "authtoken",
        "model": "token"
    }
},
{
    "model": "contenttypes.contenttype",
    "pk": 8,
    "fields": {
        "app_label": "unshortenuri",
        "model": "url"
    }
},
{
    "model": "auth.permission",
    "pk": 1,
    "fields": {
        "name": "Can add log entry",
        "content_type": 1,
        "codename": "add_logentry"
    }
},
{
    "model": "auth.permission",
    "pk": 2,
    "fields": {
        "name": "Can change log entry",
        "content_type": 1,
        "codename": "change_logentry"
    }
},
{
    "model": "auth.permission",
    "pk": 3,
    "fields": {
        "name": "Can delete log entry",
        "content_type": 1,
        "codename": "delete_logentry"
    }
},
{
    "model": "auth.permission",
    "pk": 4,
    "fields": {
        "name": "Can view log entry",
        "content_type": 1,
        "codename": "view_logentry"
    }
},
{
    "model": "auth.permission",
    "pk": 5,
    "fields": {
        "name": "Can add permission",
        "content_type": 2,
        "codename": "add_permission"
    }
},
{
    "model": "auth.permission",
    "pk": 6,
    "fields": {
        "name": "Can change permission",
        "content_type": 2,
        "codename": "change_permission"
    }
},
{
    "model": "auth.permission",
    "pk": 7,
    "fields": {
        "name": "Can delete permission",
        "content_type": 2,
        "codename": "delete_permission"
    }
},
{
    "model": "auth.permission",
    "pk": 8,
    "fields": {
        "name": "Can view permission",
        "content_type": 2,
        "codename": "view_permission"
    }
},
{
    "model": "auth.permission",
    "pk": 9,
    "fields": {
        "name": "Can add group",
        "content_type": 3,
        "codename": "add_group"
    }
},
{
    "model": "auth.permission",
    "pk": 10,
    "fields": {
        "name": "Can change group",
        "content_type": 3,
        "codename": "change_group"
    }
},
{
    "model": "auth.permission",
    "pk": 11,
    "fields": {
        "name": "Can delete group",
        "content_type": 3,
        "codename": "delete_group"
    }
},
{
    "model": "auth.permission",
    "pk": 12,
    "fields": {
        "name": "Can view group",
        "content_type": 3,
        "codename": "view_group"
    }
},
{
    "model": "auth.permission",
    "pk": 13,
    "fields": {
        "name": "Can add user",
        "content_type": 4,
        "codename": "add_user"
    }
},
{
    "model": "auth.permission",
    "pk": 14,
    "fields": {
        "name": "Can change user",
        "content_type": 4,
        "codename": "change_user"
    }
},
{
    "model": "auth.permission",
    "pk": 15,
    "fields": {
        "name": "Can delete user",
        "content_type": 4,
        "codename": "delete_user"
    }
},
{
    "model": "auth.permission",
    "pk": 16,
    "fields": {
        "name": "Can view user",
        "content_type": 4,
        "codename": "view_user"
    }
},
{
    "model": "auth.permission",
    "pk": 17,
    "fields": {
        "name": "Can add content type",
        "content_type": 5,
        "codename": "add_contenttype"
    }
},
{
    "model": "auth.permission",
    "pk": 18,
    "fields": {
        "name": "Can change content type",
        "content_type": 5,
        "codename": "change_contenttype"
    }
},
{
    "model": "auth.permission",
    "pk": 19,
    "fields": {
        "name": "Can delete content type",
        "content_type": 5,
        "codename": "delete_contenttype"
    }
},
{
    "model": "auth.permission",
    "pk": 20,
    "fields": {
        "name": "Can view content type",
        "content_type": 5,
        "codename": "view_contenttype"
    }
},
{
    "model": "auth.permission",
    "pk": 21,
    "fields": {
        "name": "Can add session",
        "content_type": 6,
        "codename": "add_session"
    }
},
{
    "model": "auth.permission",
    "pk": 22,
    "fields": {
        "name": "Can change session",
        "content_type": 6,
        "codename": "change_session"
    }
},
{
    "model": "auth.permission",
    "pk": 23,
    "fields": {
        "name": "Can delete session",
        "content_type": 6,
        "codename": "delete_session"
    }
},
{
    "model": "auth.permission",
    "pk": 24,
    "fields": {
        "name": "Can view session",
        "content_type": 6,
        "codename": "view_session"
    }
},
{
    "model": "auth.permission",
    "pk": 25,
    "fields": {
        "name": "Can add Token",
        "content_type": 7,
        "codename": "add_token"
    }
},
{
    "model": "auth.permission",
    "pk": 26,
    "fields": {
        "name": "Can change Token",
        "content_type": 7,
        "codename": "change_token"
    }
},
{
    "model": "auth.permission",
    "pk": 27,
    "fields": {
        "name": "Can delete Token",
        "content_type": 7,
        "codename": "delete_token"
    }
},
{
    "model": "auth.permission",
    "pk": 28,
    "fields": {
        "name": "Can view Token",
        "content_type": 7,
        "codename": "view_token"
    }
},
{
    "model": "auth.permission",
    "pk": 29,
    "fields": {
        "name": "Can add url",
        "content_type": 8,
        "codename": "add_url"
    }
},
{
    "model": "auth.permission",
    "pk": 30,
    "fields": {
        "name": "Can change url",
        "content_type": 8,
        "codename": "change_url"
    }
},
{
    "model": "auth.permission",
    "pk": 31,
    "fields": {
        "name": "Can delete url",
        "content_type": 8,
        "codename": "delete_url"
    }
},
{
    "model": "auth.permission",
    "pk": 32,
    "fields": {
        "name": "Can view url",
        "content_type": 8,
        "codename": "view_url"
    }
},
{
    "model": "auth.user",
    "pk": 1,
    "fields": {
        "password": "pbkdf2_sha256$120000$jHeZ4rligGgB$T3KqiLGCtr5dZY5HAECgcizmQ8tiMNxlUkayH86GZfI=",
        "last_login": null,
        "is_superuser": true,
        "username": "unshorten",
        "first_name": "",
        "last_name": "",
        "email": "unshorten@gmail.com",
        "is_staff": true,
        "is_active": true,
        "date_joined": "2019-01-13T20:00:03.775Z",
        "groups": [],
        "user_permissions": []
    }
},
{
    "model": "unshortenuri.url",
    "pk": 1,
    "fields": {
        "url": "http://cnn.com",
        "unshortened_url": "https://www.cnn.com/",
        "date_time": "2019-01-16T03:54:57.321Z",
        "user": 1
    }
},
{
    "model": "unshortenuri.url",
    "pk": 2,
    "fields": {
        "url": "http://cnn.com",
        "unshortened_url": "https://www.cnn.com/",
        "date_time": "2019-01-16T03:55:30.175Z",
        "user": 1
    }
},
{
    "model": "unshortenuri.url",
    "pk": 3,
    "fields": {
        "url": "http://cnn.com",
        "unshortened_url": "https://www.cnn.com/",
        "date_time": "2019-01-16T03:57:22.961Z",
        "user": 1
    }
},
{
    "model": "unshortenuri.url",
    "pk": 4,
    "fields": {
        "url": "http://cnn.com",
        "unshortened_url": "https://www.cnn.com/",
        "date_time": "2019-01-16T04:27:03.258Z",
        "user": 1
    }
},
{
    "model": "unshortenuri.url",
    "pk": 5,
    "fields": {
        "url": "http://cnn.com",
        "unshortened_url": "https://www.cnn.com/",
        "date_time": "2019-01-17T01:33:24.540Z",
        "user": 1
    }
},
{
    "model": "unshortenuri.url",
    "pk": 6,
    "fields": {
        "url": "http://cnn.com",
        "unshortened_url": "https://www.cnn.com/",
        "date_time": "2019-01-17T01:35:08.349Z",
        "user": 1
    }
},
{
    "model": "unshortenuri.url",
    "pk": 7,
    "fields": {
        "url": "http://cnn.com",
        "unshortened_url": "https://www.cnn.com/",
        "date_time": "2019-01-17T01:35:51.423Z",
        "user": 1
    }
},
{
    "model": "unshortenuri.url",
    "pk": 8,
    "fields": {
        "url": "http://cnn.com",
        "unshortened_url": "https://www.cnn.com/",
        "date_time": "2019-01-17T01:37:10.695Z",
        "user": 1
    }
},
{
    "model": "unshortenuri.url",
    "pk": 9,
    "fields": {
        "url": "http://cnn.com",
        "unshortened_url": "https://www.cnn.com/",
        "date_time": "2019-01-17T01:38:30.082Z",
        "user": 1
    }
},
{
    "model": "unshortenuri.url",
    "pk": 10,
    "fields": {
        "url": "http://cnn.com",
        "unshortened_url": "https://www.cnn.com/",
        "date_time": "2019-01-17T01:40:39.309Z",
        "user": 1
    }
},
{
    "model": "unshortenuri.url",
    "pk": 11,
    "fields": {
        "url": "http://cnn.com",
        "unshortened_url": "https://www.cnn.com/",
        "date_time": "2019-01-17T01:42:13.628Z",
        "user": 1
    }
},
{
    "model": "unshortenuri.url",
    "pk": 12,
    "fields": {
        "url": "http://cnn.com",
        "unshortened_url": "https://www.cnn.com/",
        "date_time": "2019-01-17T01:46:49.979Z",
        "user": 1
    }
},
{
    "model": "unshortenuri.url",
    "pk": 13,
    "fields": {
        "url": "http://cnn.com",
        "unshortened_url": "https://www.cnn.com/",
        "date_time": "2019-01-17T01:52:33.321Z",
        "user": 1
    }
},
{
    "model": "unshortenuri.url",
    "pk": 14,
    "fields": {
        "url": "http://cnn.com",
        "unshortened_url": "https://www.cnn.com/",
        "date_time": "2019-01-18T01:13:47.117Z",
        "user": 1
    }
},
{
    "model": "unshortenuri.url",
    "pk": 15,
    "fields": {
        "url": "http://cnn.com",
        "unshortened_url": "https://www.cnn.com/",
        "date_time": "2019-01-18T01:14:27.566Z",
        "user": 1
    }
},
{
    "model": "unshortenuri.url",
    "pk": 16,
    "fields": {
        "url": "http://cnn.com",
        "unshortened_url": "https://edition.cnn.com/",
        "date_time": "2019-01-18T01:23:49.099Z",
        "user": 1
    }
}
]
